{
    "count": 1118,
    "next": "https://pokeapi.co/api/v2/pokemon?offset=9&limit=4",
    "previous": "https://pokeapi.co/api/v2/pokemon?offset=1&limit=4",
    "results": [
        {
            "name": "charizard",
            "url": "https://pokeapi.co/api/v2/pokemon/6/"
        },
        {
            "name": "squirtle",
            "url": "https://pokeapi.co/api/v2/pokemon/7/"
        },
        {
            "name": "wartortle",
            "url": "https://pokeapi.co/api/v2/pokemon/8/"
        },
        {
            "name": "blastoise",
            "url": "https://pokeapi.co/api/v2/pokemon/9/"
        }
    ]
}